Data Analytics Final Project
…
5 Supervised Learning

5.1 Regression task

For the regression task, we aimed to predict flight arrival delays arr_delay based on various features, including flight distance, weather conditions, and carrier information. Our goal was to build and evaluate a regression model that could identify the key factors contributing to delays and provide reasonable predictions. We explored feature engineering, refined our model by addressing multicollinearity and insignificant predictors, and assessed its performance using metrics like RMSE and MAE to ensure practical insights.

Code

# creating the initial regression model
reg_model = lm(arr_delay ~ distance_norm + wind_speed_norm + visib_norm + precip_norm + temp_norm + carrier + part_of_day, data = train_data)

tidy(reg_model)

# A tibble: 22 × 5
   term            estimate std.error statistic  p.value
   <chr>              <dbl>     <dbl>     <dbl>    <dbl>
 1 (Intercept)        14.5       2.29     6.30  3.06e-10
 2 distance_norm     -29.3       3.72    -7.89  3.10e-15
 3 wind_speed_norm    -2.23      2.75    -0.813 4.17e- 1
 4 visib_norm        -17.8       1.41   -12.6   2.15e-36
 5 precip_norm         8.77      7.92     1.11  2.68e- 1
 6 temp_norm          25.4       3.69     6.87  6.48e-12
 7 carrierAA           4.67      2.02     2.31  2.10e- 2
 8 carrierAS           5.94      3.67     1.62  1.06e- 1
 9 carrierB6          20.4       1.75    11.6   4.94e-31
10 carrierDL           4.99      1.84     2.71  6.70e- 3
# ℹ 12 more rows
…
